[gd_scene load_steps=2 format=2]

[ext_resource path="res://ChipAdmin.gd" type="Script" id=1]

[node name="Chip Admin" type="GridContainer"]
margin_top = 812.0
margin_right = 200.0
margin_bottom = 900.0
columns = 2
script = ExtResource( 1 )
__meta__ = {
"_edit_use_anchors_": false
}

[node name="Name Label" type="Label" parent="."]
margin_top = 5.0
margin_right = 70.0
margin_bottom = 19.0
text = "Chip Name"

[node name="Name Input" type="LineEdit" parent="."]
margin_left = 74.0
margin_right = 200.0
margin_bottom = 24.0
size_flags_horizontal = 3
__meta__ = {
"_edit_use_anchors_": false
}

[node name="Inputs Label" type="Label" parent="."]
margin_top = 29.0
margin_right = 70.0
margin_bottom = 43.0
text = "Inputs: 1"

[node name="Inputs Input" type="HSlider" parent="."]
margin_left = 74.0
margin_top = 28.0
margin_right = 200.0
margin_bottom = 44.0
size_flags_horizontal = 3
min_value = 1.0
max_value = 10.0
value = 1.0

[node name="Outputs Label" type="Label" parent="."]
margin_top = 49.0
margin_right = 70.0
margin_bottom = 63.0
text = "Outputs: 1"

[node name="Outputs Input" type="HSlider" parent="."]
margin_left = 74.0
margin_top = 48.0
margin_right = 200.0
margin_bottom = 64.0
size_flags_horizontal = 3
min_value = 1.0
max_value = 10.0
value = 1.0

[node name="Create Chip" type="Button" parent="."]
margin_top = 68.0
margin_right = 70.0
margin_bottom = 88.0
text = "Create"

[node name="Start Render" type="Button" parent="."]
margin_left = 74.0
margin_top = 68.0
margin_right = 200.0
margin_bottom = 88.0
text = "Start Render"
[connection signal="value_changed" from="Inputs Input" to="." method="_on_Inputs_Input_value_changed"]
[connection signal="value_changed" from="Outputs Input" to="." method="_on_Outputs_Input_value_changed"]
[connection signal="pressed" from="Create Chip" to="." method="_on_Create_Chip_pressed"]
[connection signal="pressed" from="Start Render" to="." method="_on_Start_Render_pressed"]
